Error: ASSERTION FAIL: 0
File: dtls.c
Line: 3259
assembly.ll line: 8696
State: 1
Stack: 
	#000008696 in decrypt_verify (=94554640510960, =94554636570560, =53, =94554622697456) at dtls.c:3259
	#100006987 in dtls_handle_message (=94554638010912, =94554592565584, =94554636570560, =53) at dtls.c:4012
	#200006851 in dtls_handle_read (=94554638010912, =94554636570560, =53, =1) at dtls-fuzz.c:341
	#300030808 in perform_unified_handshake_nofrag () at dtls-fuzz.c:1072
	#400038939 in __klee_posix_wrapped_main (=5, =94554638012928) at dtls-fuzz.c:1655
	#500003488 in __user_main (=5, =94554623304832, =94554623304880) at /home/hooman/Repos/klee/runtime/POSIX/klee_init_env.c:244
	#600001210 in __uClibc_main (=5, =94554623304832) at libc/misc/internals/__uClibc_main.c:401
	#700001376 in main (=5, =94554623304832)
