Error: memory error: out of bound pointer
File: ./numeric.h
Line: 93
assembly.ll line: 8448
State: 3
Stack: 
	#000008448 in dtls_uint16_to_int () at ./numeric.h:93
	#100012758 in check_server_hello (=94636956630240, =94636956233952, =94636952774349, =50) at dtls.c:2833
	#200010969 in handle_handshake_msg (=94636956630240, =94636956233952, =94636929622736, =0, =8, =94636952774349, =50) at dtls.c:3399
	#300010616 in handle_handshake (=94636956630240, =94636956233952, =94636929622736, =0, =8, =94636952774349, =50) at dtls.c:3824
	#400007506 in dtls_handle_message (=94636956630240, =94636929622736, =94636952774336, =63) at dtls.c:4175
	#500006853 in dtls_handle_read (=94636956630240, =94636952774336, =63, =1) at dtls-fuzz.c:341
	#600030759 in perform_unified_handshake_nofrag () at dtls-fuzz.c:1024
	#700038995 in __klee_posix_wrapped_main (=5, =94636953591392) at dtls-fuzz.c:1655
	#800003490 in __user_main (=5, =94636942492800, =94636942492848) at /home/hooman/Repos/klee/runtime/POSIX/klee_init_env.c:244
	#900001212 in __uClibc_main (=5, =94636942492800) at libc/misc/internals/__uClibc_main.c:401
	#1000001378 in main (=5, =94636942492800)
Info: 
	address: (Add w64 94636952774396
          (ZExt w64 (Read w8 0 SH-sessionID)))
	example: 94636952774399
	range: [94636952774399, 94636952774399]
	next: object at 94636903422464 of size 126
		MO295[126] allocated at global:__PRETTY_FUNCTION__.handle_handshake
