Error: overshift error
File: dtls.c
Line: 4048
assembly.ll line: 7096
State: 3
Stack: 
	#000054596 in klee_overshift_check (=64, ) at /home/hooman/Repos/klee-augmented/runtime/Intrinsic/klee_overshift_check.c:27
	#100007096 in dtls_handle_message (=94492964828416, =94492951218720, =94492963817680, =44) at dtls.c:4048
	#200006806 in dtls_handle_read (=94492964828416, =94492963817680, =44, =1) at dtls-fuzz.c:341
	#300030599 in perform_unified_handshake_nofrag () at dtls-fuzz.c:1007
	#400038987 in __klee_posix_wrapped_main (=5, =94492964462368) at dtls-fuzz.c:1655
	#500003438 in __user_main (=5, =94492953567872, =94492953567920) at /home/hooman/Repos/klee-augmented/runtime/POSIX/klee_init_env.c:245
	#600001189 in __uClibc_main (=5, =94492953567872) at libc/misc/internals/__uClibc_main.c:401
	#700001355 in main (=5, =94492953567872)
